{
  "results": [
    {
      "id": 1,
      "name": "Earth domination",
      "place": "New York, as always",
      "date": ""
    },
    {
      "id": 2,
      "name": "Friday beers",
      "place": "Bar",
      "date": "Every friday"
    },
    {
      "id": 3,
      "name": "Vacacione",
      "place": "El Caribe",
      "date": "Julio"
    },
    {
      "id": 4,
      "name": "Otro evento",
      "place": "Otro lugar",
      "date": "Otra fecha"
    }
  ]
}